{
  "prepare_queue": {
    "installed": [],
    "uninstalled": []
  },
  "config_munge": {
    "files": {}
  },
  "installed_plugins": {
    "call-number": {
      "PACKAGE_NAME": "com.navnetgps.oneqlik"
    },
    "com.razorpay.cordova": {
      "PACKAGE_NAME": "com.navnetgps.oneqlik"
    },
    "com.telerik.plugins.nativepagetransitions": {
      "PACKAGE_NAME": "com.navnetgps.oneqlik"
    },
    "cordova-plugin-android-permissions": {
      "PACKAGE_NAME": "com.navnetgps.oneqlik"
    },
    "cordova-plugin-app-version": {
      "PACKAGE_NAME": "com.navnetgps.oneqlik"
    },
    "cordova-plugin-camera": {
      "ANDROID_SUPPORT_V4_VERSION": "27.+",
      "PACKAGE_NAME": "com.navnetgps.oneqlik"
    },
    "cordova-plugin-crop": {
      "PACKAGE_NAME": "com.navnetgps.oneqlik"
    },
    "cordova-plugin-file": {
      "PACKAGE_NAME": "com.navnetgps.oneqlik"
    },
    "cordova-plugin-file-opener2": {
      "ANDROID_SUPPORT_V4_VERSION": "27.+",
      "PACKAGE_NAME": "com.navnetgps.oneqlik"
    },
    "cordova-plugin-file-transfer": {
      "PACKAGE_NAME": "com.navnetgps.oneqlik"
    },
    "cordova-plugin-filepath": {
      "PACKAGE_NAME": "com.navnetgps.oneqlik"
    },
    "cordova-plugin-geolocation": {
      "PACKAGE_NAME": "com.navnetgps.oneqlik"
    },
    "cordova-plugin-googlemaps": {
      "PLAY_SERVICES_VERSION": "15.0.1",
      "ANDROID_SUPPORT_V4_VERSION": "27.+",
      "PACKAGE_NAME": "com.navnetgps.oneqlik"
    },
    "cordova-plugin-inappbrowser": {
      "PACKAGE_NAME": "com.navnetgps.oneqlik"
    },
    "cordova-plugin-nativeaudio": {
      "PACKAGE_NAME": "com.navnetgps.oneqlik"
    },
    "cordova-plugin-nativegeocoder": {
      "PACKAGE_NAME": "com.navnetgps.oneqlik"
    },
    "cordova-plugin-networkinterface": {
      "PACKAGE_NAME": "com.navnetgps.oneqlik"
    },
    "cordova-plugin-speechrecognition": {
      "PACKAGE_NAME": "com.navnetgps.oneqlik"
    },
    "cordova-plugin-splashscreen": {
      "PACKAGE_NAME": "com.navnetgps.oneqlik"
    },
    "cordova-plugin-statusbar": {
      "PACKAGE_NAME": "com.navnetgps.oneqlik"
    },
    "cordova-plugin-tts": {
      "PACKAGE_NAME": "com.navnetgps.oneqlik"
    },
    "cordova-plugin-whitelist": {
      "PACKAGE_NAME": "com.navnetgps.oneqlik"
    },
    "cordova-plugin-x-socialsharing": {
      "ANDROID_SUPPORT_V4_VERSION": "24.1.1+",
      "PACKAGE_NAME": "com.navnetgps.oneqlik"
    },
    "cordova-sms-plugin": {
      "PACKAGE_NAME": "com.navnetgps.oneqlik"
    },
    "cordova-support-google-services": {
      "PACKAGE_NAME": "com.navnetgps.oneqlik"
    },
    "phonegap-plugin-barcodescanner": {
      "ANDROID_SUPPORT_V4_VERSION": "27.+",
      "PACKAGE_NAME": "com.navnetgps.oneqlik"
    },
    "phonegap-plugin-push": {
      "ANDROID_SUPPORT_V13_VERSION": "27.+",
      "FCM_VERSION": "17.0.+",
      "PACKAGE_NAME": "com.navnetgps.oneqlik"
    },
    "uk.co.workingedge.phonegap.plugin.launchnavigator": {
      "GOOGLE_API_KEY_FOR_ANDROID": "AIzaSyCNT3eO1wPQHUhY_cmQ9N_9BkLzJ_GB9j8",
      "OKHTTP_VERSION": "3.12.0",
      "PACKAGE_NAME": "com.navnetgps.oneqlik"
    }
  },
  "dependent_plugins": {
    "cordova-plugin-actionsheet": {
      "PACKAGE_NAME": "com.navnetgps.oneqlik"
    },
    "cordova-plugin-dialogs": {
      "PACKAGE_NAME": "com.navnetgps.oneqlik"
    },
    "es6-promise-plugin": {
      "PACKAGE_NAME": "com.navnetgps.oneqlik"
    },
    "phonegap-plugin-multidex": {
      "PACKAGE_NAME": "com.navnetgps.oneqlik"
    }
  }
}